FPGADesign/nano4k_hdmi_tx/src/sim_result.vcd
$date
	Sat Jun 18 13:45:26 2022
$end
$version
	Icarus Verilog
$end
$timescale
	10ps
$end
$scope module encoder_serializer_tb $end
$var wire 1 ! hdmiOUT $end
$var reg 2 " C_bus [1:0] $end
$var reg 1 # clock $end
$var reg 8 $ colorByte [7:0] $end
$var reg 1 % display_active $end
$scope module DUT $end
$var wire 1 % DE $end
$var wire 2 & controlBus [1:0] $end
$var wire 8 ' pixelComponent [7:0] $end
$var wire 1 # serialClk $end
$var wire 4 ( onesInTmdsBuffer [3:0] $end
$var wire 4 ) onesInPixelComponent [3:0] $end
$var reg 8 * disparityCounter [7:0] $end
$var reg 4 + serialCycleCount [3:0] $end
$var reg 10 , tmdsCharacterBuff [9:0] $end
$var reg 10 - tmdsCharacterOut [9:0] $end
$var reg 10 . tmdsCharacterOut_xfer_pipe [9:0] $end
$var reg 1 ! tmdsSerialOut $end
$var integer 32 / tmdsBitIndex [31:0] $end
$scope module ones_in_pixel $end
$var wire 8 0 onesFrom [7:0] $end
$var wire 4 1 result [3:0] $end
$var wire 4 2 nibbleSum2 [3:0] $end
$var wire 4 3 nibbleSum1 [3:0] $end
$upscope $end
$scope module ones_in_tmds_buffer $end
$var wire 8 4 onesFrom [7:0] $end
$var wire 4 5 result [3:0] $end
$var wire 4 6 nibbleSum2 [3:0] $end
$var wire 4 7 nibbleSum1 [3:0] $end
$upscope $end
$upscope $end
$upscope $end
$enddefinitions $end
$comment Show the parameter values. $end
$dumpall
$end
#0
$dumpvars
b1 7
b10 6
b11 5
b1010100 4
b10 3
b10 2
b100 1
b1010101 0
bx /
b0 .
b0 -
b1101010100 ,
b0 +
b0 *
b100 )
b11 (
b1010101 '
b0 &
0%
b1010101 $
0#
b0 "
x!
$end
#18500
b1 +
0!
1#
#37000
0#
#55500
b10 +
1#
#74000
0#
#92500
b11 +
1#
#111000
0#
#129500
b100 +
1#
#148000
0#
#166500
b101 +
1#
#185000
0#
#203500
b110 +
1#
#222000
0#
#240500
b111 +
1#
#259000
0#
#277500
b1000 +
1#
#296000
0#
#314500
b1001 +
1#
#333000
0#
#351500
b1101010100 .
b0 +
1#
#370000
0#
#388500
b1 +
1#
#400000
b10 7
b100 (
b100 5
b10 6
b110011 4
b11111110 *
b111 /
b100110011 ,
1%
#407000
0#
#425500
b10 +
1#
#444000
0#
#462500
b11 +
1#
#481000
0#
#499500
b100 +
1#
#518000
0#
#536500
b101 +
1#
#555000
0#
#573500
b110 +
1#
#592000
0#
#610500
b111 +
1#
#629000
0#
#647500
b1000 +
1#
#666000
0#
#684500
b1001 +
1#
#703000
0#
#721500
b1101010100 -
b100110011 .
b0 +
1#
#740000
0#
#758500
b1 +
b110101010 -
1#
#777000
0#
#795500
b10 +
b11010101 -
1#
#814000
0#
#832500
b11 +
b1101010 -
1!
1#
#851000
0#
#869500
b100 +
b110101 -
0!
1#
#888000
0#
#906500
b101 +
b11010 -
1!
1#
#925000
0#
#943500
b110 +
b1101 -
0!
1#
#962000
0#
#980500
b111 +
b110 -
1!
1#
#999000
0#
#1017500
b1000 +
b11 -
0!
1#
#1036000
0#
#1054500
b1001 +
b1 -
1!
1#
#1073000
0#
#1091500
b0 +
b100110011 -
1#
#1110000
0#
#1128500
b1 +
b10011001 -
1#
#1147000
0#
#1165500
b10 +
b1001100 -
1#
#1184000
0#
#1202500
b11 +
b100110 -
0!
1#
#1221000
0#
#1239500
b100 +
b10011 -
1#
#1258000
0#
#1276500
b101 +
b1001 -
1!
1#
#1295000
0#
#1313500
b110 +
b100 -
1#
#1332000
0#
#1350500
b111 +
b10 -
0!
1#
#1369000
0#
#1387500
b1000 +
b1 -
1#
#1406000
0#
#1424500
b1001 +
b0 -
1!
1#
#1443000
0#
#1461500
b100110011 -
b0 +
0!
1#
#1480000
0#
#1498500
b1 +
b10011001 -
1!
1#
#1517000
0#
#1535500
b10 +
b1001100 -
1#
#1554000
0#
#1572500
b11 +
b100110 -
0!
1#
#1591000
0#
#1609500
b100 +
b10011 -
1#
#1628000
0#
#1646500
b101 +
b1001 -
1!
1#
#1665000
0#
#1683500
b110 +
b100 -
1#
#1702000
0#
#1720500
b111 +
b10 -
0!
1#
#1739000
0#
#1757500
b1000 +
b1 -
1#
#1776000
0#
#1794500
b1001 +
b0 -
1!
1#
#1813000
0#
#1831500
b100110011 -
b0 +
0!
1#
#1850000
0#
#1868500
b1 +
b10011001 -
1!
1#
#1887000
0#
#1905500
b10 +
b1001100 -
1#
#1924000
0#
#1942500
b11 +
b100110 -
0!
1#
#1961000
0#
#1979500
b100 +
b10011 -
1#
#1998000
0#
#2016500
b101 +
b1001 -
1!
1#
#2035000
0#
#2053500
b110 +
b100 -
1#
#2072000
0#
#2090500
b111 +
b10 -
0!
1#
#2109000
0#
#2127500
b1000 +
b1 -
1#
#2146000
0#
#2164500
b1001 +
b0 -
1!
1#
#2183000
0#
#2201500
b100110011 -
b0 +
0!
1#
#2220000
0#
#2238500
b1 +
b10011001 -
1!
1#
#2257000
0#
#2275500
b10 +
b1001100 -
1#
#2294000
0#
#2312500
b11 +
b100110 -
0!
1#
#2331000
0#
#2349500
b100 +
b10011 -
1#
#2368000
0#
#2386500
b101 +
b1001 -
1!
1#
#2405000
0#
#2423500
b110 +
b100 -
1#
#2442000
0#
#2460500
b111 +
b10 -
0!
1#
#2479000
0#
#2497500
b1000 +
b1 -
1#
#2516000
0#
#2534500
b1001 +
b0 -
1!
1#
#2553000
0#
#2571500
b100110011 -
b0 +
0!
1#
#2590000
0#
#2608500
b1 +
b10011001 -
1!
1#
#2627000
0#
#2645500
b10 +
b1001100 -
1#
#2664000
0#
#2682500
b11 +
b100110 -
0!
1#
#2701000
0#
#2719500
b100 +
b10011 -
1#
#2738000
0#
#2756500
b101 +
b1001 -
1!
1#
#2775000
0#
#2793500
b110 +
b100 -
1#
#2812000
0#
#2830500
b111 +
b10 -
0!
1#
#2849000
0#
#2867500
b1000 +
b1 -
1#
#2886000
0#
#2904500
b1001 +
b0 -
1!
1#
#2923000
0#
#2941500
b100110011 -
b0 +
0!
1#
#2960000
0#
#2978500
b1 +
b10011001 -
1!
1#
#2997000
0#
#3015500
b10 +
b1001100 -
1#
#3034000
0#
#3052500
b11 +
b100110 -
0!
1#
#3071000
0#
#3089500
b100 +
b10011 -
1#
#3108000
0#
#3126500
b101 +
b1001 -
1!
1#
#3145000
0#
#3163500
b110 +
b100 -
1#
#3182000
0#
#3200500
b111 +
b10 -
0!
1#
#3219000
0#
#3237500
b1000 +
b1 -
1#
#3256000
0#
#3274500
b1001 +
b0 -
1!
1#
#3293000
0#
#3311500
b100110011 -
b0 +
0!
1#
#3330000
0#
#3348500
b1 +
b10011001 -
1!
1#
#3367000
0#
#3385500
b10 +
b1001100 -
1#
#3404000
0#
#3422500
b11 +
b100110 -
0!
1#
#3441000
0#
#3459500
b100 +
b10011 -
1#
#3478000
0#
#3496500
b101 +
b1001 -
1!
1#
#3515000
0#
#3533500
b110 +
b100 -
1#
#3552000
0#
#3570500
b111 +
b10 -
0!
1#
#3589000
0#
#3607500
b1000 +
b1 -
1#
#3626000
0#
#3644500
b1001 +
b0 -
1!
1#
#3663000
0#
#3681500
b100110011 -
b0 +
0!
1#
#3700000
0#
#3718500
b1 +
b10011001 -
1!
1#
#3737000
0#
#3755500
b10 +
b1001100 -
1#
#3774000
0#
#3792500
b11 +
b100110 -
0!
1#
#3811000
0#
#3829500
b100 +
b10011 -
1#
#3848000
0#
#3866500
b101 +
b1001 -
1!
1#
#3885000
0#
#3903500
b110 +
b100 -
1#
#3922000
0#
#3940500
b111 +
b10 -
0!
1#
#3959000
0#
#3977500
b1000 +
b1 -
1#
#3996000
0#
#4014500
b1001 +
b0 -
1!
1#
#4033000
0#
#4051500
b100110011 -
b0 +
0!
1#
#4070000
0#
#4088500
b1 +
b10011001 -
1!
1#
#4107000
0#
#4125500
b10 +
b1001100 -
1#
#4144000
0#
#4162500
b11 +
b100110 -
0!
1#
#4181000
0#
#4199500
b100 +
b10011 -
1#
#4218000
0#
#4236500
b101 +
b1001 -
1!
1#
#4255000
0#
#4273500
b110 +
b100 -
1#
#4292000
0#
#4310500
b111 +
b10 -
0!
1#
#4329000
0#
#4347500
b1000 +
b1 -
1#
#4366000
0#
#4384500
b1001 +
b0 -
1!
1#
#4403000
0#
#4421500
b100110011 -
b0 +
0!
1#
#4440000
0#
#4458500
b1 +
b10011001 -
1!
1#
#4477000
0#
#4495500
b10 +
b1001100 -
1#
#4514000
0#
#4532500
b11 +
b100110 -
0!
1#
#4551000
0#
#4569500
b100 +
b10011 -
1#
#4588000
0#
#4606500
b101 +
b1001 -
1!
1#
#4625000
0#
#4643500
b110 +
b100 -
1#
#4662000
0#
#4680500
b111 +
b10 -
0!
1#
#4699000
0#
#4717500
b1000 +
b1 -
1#
#4736000
0#
#4754500
b1001 +
b0 -
1!
1#
#4773000
0#
#4791500
b100110011 -
b0 +
0!
1#
#4810000
0#
#4828500
b1 +
b10011001 -
1!
1#
#4847000
0#
#4865500
b10 +
b1001100 -
1#
#4884000
0#
#4902500
b11 +
b100110 -
0!
1#
#4921000
0#
#4939500
b100 +
b10011 -
1#
#4958000
0#
#4976500
b101 +
b1001 -
1!
1#
#4995000
0#
#5013500
b110 +
b100 -
1#
#5032000
0#
#5050500
b111 +
b10 -
0!
1#
#5069000
0#
#5087500
b1000 +
b1 -
1#
